<svg xmlns="http://www.w3.org/2000/svg" width="14" height="20">
    <path fill="#6D7678" fill-rule="evenodd" d="M13.416 16.931l-2.375-2.898c-.573-.632-1.233-.888-2.026-.471l-.793.435c-.441.23-.444.363-.607.621-.426.678-.997.524-1.267.231-1.143-1.246-2.567-4.045-2.58-4.071a10.427 10.427 0 0 1-.939-2.932c-.065-.398.134-.96.92-.92.301.015.408.09.849-.142l.807-.409c.793-.415.975-1.112.805-1.957L5.292.757a1.333 1.333 0 0 0-1.809-.61l-1.721.886c-.298.154-.576.471-.756.832-1.452 2.511-1.367 6.466.484 10.15.068.138 2.903 7.196 8.549 7.832.393.061.804.016 1.101-.144l1.708-.914a1.392 1.392 0 0 0 .568-1.858z"/>
</svg>
